#Setup file for cosmic ray test 
##Module A
P1_L1_S1_A || 110 || 1 ||
P1_L1_S1_B || 111 || 1 ||
P1_L1_S2_A || 114 || 1 ||
P1_L1_S2_B || 117 || 1 ||
P1_L2_S1_A || 112 ||
P1_L2_S1_B || 113 ||
P1_L2_S2_A || 116 ||
P1_L2_S2_B || 115 ||
#Module B
P2_L1_S1_A || 152 || 1 ||
P2_L1_S1_B || 153 || 1 ||
P2_L1_S2_A || 150 || 1 ||
P2_L1_S2_B || 151 || 1 ||
P2_L2_S1_A || 154 ||
P2_L2_S1_B || 155 ||
P2_L2_S2_A || 156 || 
P2_L2_S2_B || 157 ||  
