#This is the setup file for #
#PositionID:UplinkID; if UplinkID = 0, we think there is no FrontEnd board at this position
#first Layer
L1_P1_P || 80 ||
L1_P1_N || 0 ||
L1_P2_P || 81 ||
L1_P2_N || 0 ||
L1_P3_P || 86 ||
L1_P3_N || 0 ||  
L1_P4_P || 83 ||
L1_P4_N || 0 ||
#second Layer
L2_P1_P || 84 ||
L2_P1_N || 0 ||
L2_P2_P || 85 ||
L2_P2_N || 0 ||
L2_P3_P || 0 ||
L2_P3_N || 0 ||
L2_P4_P || 0 ||
L2_P4_N || 0 ||


